[
{
    "pk": 1,
    "fields": {
        "hp_lost_percent": 100,
        "available": true,
        "slug": "deadly",
        "name": "deadly",
        "description": "",
        "order": 10
    },
    "model": "morrigan_fight.violencedegree"
},
{
    "pk": 2,
    "fields": {
        "hp_lost_percent": 80,
        "available": true,
        "slug": "harshly",
        "name": "harshly",
        "description": "",
        "order": 20
    },
    "model": "morrigan_fight.violencedegree"
},
{
    "pk": 3,
    "fields": {
        "hp_lost_percent": 40,
        "available": true,
        "slug": "moderatly",
        "name": "moderatly",
        "description": "",
        "order": 30
    },
    "model": "morrigan_fight.violencedegree"
},
{
    "pk": 4,
    "fields": {
        "hp_lost_percent": 10,
        "available": true,
        "slug": "softly",
        "name": "softly",
        "description": "",
        "order": 10
    },
    "model": "morrigan_fight.violencedegree"
}
]
