[
{
    "model": "morrigan_common.action",
    "fields": {
        "name": "Modifier sa description",
        "description": null,
        "order": 100,
        "available": true,
        "slug": "modify-current-description",
        "formula": null,
        "opponent_formula": null,
        "help_text": null,
        "fighting_action": false,
        "need_conscious": true,
        "need_fight": false,
        "need_no_fight": false,
        "icon": "fa fa-user-circle-o",
        "target_self": true,
        "target_other": false,
        "target_multiple": false,
        "target_own_item": false,
        "target_location_item": false,
        "target_other_item": false,
        "target_can_be_carried": false,
        "target_natural_item": "N",
        "target_equipped_item": "N",
        "view_slug": "modify-current-description"
    }
}
]
