[
{
    "model": "morrigan_common.action",
    "fields": {
        "name": "Montrer",
        "description": null,
        "order": 100,
        "available": true,
        "slug": "show-item",
        "formula": null,
        "opponent_formula": null,
        "help_text": null,
        "fighting_action": false,
        "need_conscious": true,
        "need_fight": false,
        "need_no_fight": false,
        "icon": "fa fa-share",
        "target_self": false,
        "target_other": false,
        "target_multiple": false,
        "target_own_item": true,
        "target_location_item": false,
        "target_other_item": false,
        "target_can_be_carried": false,
        "target_natural_item": "A",
        "target_equipped_item": "A",
        "target_equippable_item": "A",
        "view_slug": "show-item"
    }
}
]
