[
{
    "model": "morrigan_characters.race",
    "pk": 1,
    "fields": {
        "name": "Elfe",
        "description": "",
        "order": 10,
        "available": true,
        "effect": null,
        "can_be_mount": false,
        "size_index": 35,
        "open_for_registration": true
    }
},
{
    "model": "morrigan_characters.race",
    "pk": 2,
    "fields": {
        "name": "Orc",
        "description": "",
        "order": 20,
        "available": true,
        "effect": null,
        "can_be_mount": false,
        "size_index": 32,
        "open_for_registration": true
    }
},
{
    "model": "morrigan_characters.race",
    "pk": 3,
    "fields": {
        "name": "Humain",
        "description": "",
        "order": 30,
        "available": true,
        "effect": null,
        "can_be_mount": false,
        "size_index": 30,
        "open_for_registration": true
    }
},
{
    "model": "morrigan_characters.race",
    "pk": 4,
    "fields": {
        "name": "Vampire",
        "description": "",
        "order": 40,
        "available": true,
        "effect": null,
        "can_be_mount": false,
        "size_index": 30,
        "open_for_registration": true
    }
},
{
    "model": "morrigan_characters.race",
    "pk": 5,
    "fields": {
        "name": "Dragon",
        "description": "",
        "order": 50,
        "available": true,
        "effect": null,
        "can_be_mount": true,
        "size_index": 50,
        "open_for_registration": true
    }
},
{
    "model": "morrigan_characters.race",
    "pk": 6,
    "fields": {
        "name": "Nain",
        "description": "",
        "order": 60,
        "available": true,
        "effect": null,
        "can_be_mount": false,
        "size_index": 22,
        "open_for_registration": true
    }
},
{
    "model": "morrigan_characters.sex",
    "pk": 1,
    "fields": {
        "name": "Masculin",
        "description": "",
        "order": 10,
        "available": true,
        "icon": "fa fa-mars"
    }
},
{
    "model": "morrigan_characters.sex",
    "pk": 2,
    "fields": {
        "name": "Feminin",
        "description": "",
        "order": 20,
        "available": true,
        "icon": "fa fa-venus"
    }
},
{
    "model": "morrigan_characters.sex",
    "pk": 3,
    "fields": {
        "name": "Autre",
        "description": "",
        "order": 30,
        "available": true,
        "icon": "fa fa-mars-stroke-v"
    }
},
{
    "model": "morrigan_characters.steptype",
    "pk": 1,
    "fields": {
        "name": "Pied nu",
        "description": "",
        "order": 10,
        "available": true
    }
},
{
    "model": "morrigan_characters.steptype",
    "pk": 2,
    "fields": {
        "name": "Botte",
        "description": "",
        "order": 20,
        "available": true
    }
},
{
    "model": "morrigan_characters.steptype",
    "pk": 3,
    "fields": {
        "name": "Chaussure \u00e0 talon",
        "description": "",
        "order": 30,
        "available": true
    }
},
{
    "model": "morrigan_characters.steptype",
    "pk": 4,
    "fields": {
        "name": "Patte d'oiseau",
        "description": "",
        "order": 40,
        "available": true
    }
},
{
    "model": "morrigan_characters.steptype",
    "pk": 5,
    "fields": {
        "name": "Patte f\u00e9line",
        "description": "",
        "order": 50,
        "available": true
    }
},
{
    "model": "morrigan_common.bodyarea",
    "pk": 1,
    "fields": {
        "name": "T\u00eate",
        "description": "",
        "order": 10,
        "available": true,
        "slug": "tete",
        "default_number_available": 1,
        "is_default": false
    }
},
{
    "model": "morrigan_common.bodyarea",
    "pk": 2,
    "fields": {
        "name": "Tronc",
        "description": "",
        "order": 20,
        "available": true,
        "slug": "tronc",
        "default_number_available": 1,
        "is_default": false
    }
},
{
    "model": "morrigan_common.bodyarea",
    "pk": 3,
    "fields": {
        "name": "Bras",
        "description": "",
        "order": 30,
        "available": true,
        "slug": "bras",
        "default_number_available": 2,
        "is_default": true
    }
},
{
    "model": "morrigan_common.bodyarea",
    "pk": 4,
    "fields": {
        "name": "Main",
        "description": "",
        "order": 50,
        "available": true,
        "slug": "main",
        "default_number_available": 2,
        "is_default": false
    }
},
{
    "model": "morrigan_common.bodyarea",
    "pk": 5,
    "fields": {
        "name": "Jambe",
        "description": "",
        "order": 40,
        "available": true,
        "slug": "jambe",
        "default_number_available": 2,
        "is_default": false
    }
},
{
    "model": "morrigan_common.bodyarea",
    "pk": 6,
    "fields": {
        "name": "Pied",
        "description": "",
        "order": 60,
        "available": true,
        "slug": "pied",
        "default_number_available": 2,
        "is_default": false
    }
},
{
    "model": "morrigan_common.bodyarea",
    "pk": 7,
    "fields": {
        "name": "Tentacule",
        "description": "",
        "order": 70,
        "available": false,
        "slug": "tentacule",
        "default_number_available": 4,
        "is_default": false
    }
},
{
    "model": "morrigan_common.bodyarea",
    "pk": 8,
    "fields": {
        "name": "Queue",
        "description": "",
        "order": 80,
        "available": false,
        "slug": "queue",
        "default_number_available": 1,
        "is_default": false
    }
},
{
    "model": "morrigan_common.damagetype",
    "pk": 1,
    "fields": {
        "name": "Contondant",
        "description": "",
        "order": 10,
        "available": true
    }
},
{
    "model": "morrigan_common.damagetype",
    "pk": 2,
    "fields": {
        "name": "Perforant",
        "description": "",
        "order": 20,
        "available": true
    }
},
{
    "model": "morrigan_common.damagetype",
    "pk": 3,
    "fields": {
        "name": "Tranchant",
        "description": "",
        "order": 30,
        "available": true
    }
},
{
    "model": "morrigan_common.size",
    "pk": 1,
    "fields": {
        "name": "Pas encombrant",
        "description": "Ne prends aucune place.",
        "order": 10,
        "available": true,
        "index": 0
    }
},
{
    "model": "morrigan_common.size",
    "pk": 2,
    "fields": {
        "name": "Tr\u00e8s petit",
        "description": "",
        "order": 20,
        "available": true,
        "index": 1
    }
},
{
    "model": "morrigan_common.size",
    "pk": 3,
    "fields": {
        "name": "Petit",
        "description": "",
        "order": 30,
        "available": true,
        "index": 3
    }
},
{
    "model": "morrigan_common.size",
    "pk": 4,
    "fields": {
        "name": "Moyen",
        "description": "",
        "order": 40,
        "available": true,
        "index": 6
    }
},
{
    "model": "morrigan_common.size",
    "pk": 5,
    "fields": {
        "name": "Grand",
        "description": "",
        "order": 50,
        "available": true,
        "index": 10
    }
},
{
    "model": "morrigan_common.size",
    "pk": 6,
    "fields": {
        "name": "Tr\u00e8s grand",
        "description": "",
        "order": 60,
        "available": true,
        "index": 18
    }
},
{
    "model": "morrigan_common.size",
    "pk": 7,
    "fields": {
        "name": "\u00c9norme",
        "description": "",
        "order": 70,
        "available": true,
        "index": 30
    }
}
]
