[
{
    "model": "morrigan_common.material",
    "pk": 1,
    "fields": {
        "name": "Or",
        "description": "Metal pr\u00e9cieux parmi les pr\u00e9cieux, l'or est une ressource rare fort appr\u00e9ci\u00e9e.",
        "order": 10,
        "available": true,
        "durability": null
    }
},
{
    "model": "morrigan_common.material",
    "pk": 2,
    "fields": {
        "name": "Bronze",
        "description": "Alliage de cuivre et d'\u00e9tain, le cuivre est reconnu pour sa r\u00e9sistance \u00e0 l''usure et l'\u00e9rosion.",
        "order": 20,
        "available": true,
        "durability": null
    }
},
{
    "model": "morrigan_common.material",
    "pk": 3,
    "fields": {
        "name": "Peau de b\u00eate",
        "description": "Mieux vaut faire parti des traqueurs que des traqu\u00e9s. Certains en font encore les frais, pour leur solide peau.",
        "order": 30,
        "available": true,
        "durability": null
    }
},
{
    "model": "morrigan_common.material",
    "pk": 4,
    "fields": {
        "name": "Fer",
        "description": null,
        "order": 40,
        "available": true,
        "durability": null
    }
},
{
    "model": "morrigan_common.material",
    "pk": 5,
    "fields": {
        "name": "Bois",
        "description": null,
        "order": 50,
        "available": true,
        "durability": null
    }
},
{
    "model": "morrigan_common.material",
    "pk": 6,
    "fields": {
        "name": "Cuir",
        "description": null,
        "order": 60,
        "available": true,
        "durability": null
    }
},
{
    "model": "morrigan_common.material",
    "pk": 7,
    "fields": {
        "name": "Organique",
        "description": null,
        "order": 70,
        "available": true,
        "durability": null
    }
},
{
    "model": "morrigan_inventory.itemtype",
    "pk": 1,
    "fields": {
        "name": "Objet",
        "description": null,
        "order": 10,
        "available": true,
        "slug": "object"
    }
},
{
    "model": "morrigan_inventory.itemtype",
    "pk": 2,
    "fields": {
        "name": "Arme",
        "description": null,
        "order": 20,
        "available": true,
        "slug": "weapon"
    }
},
{
    "model": "morrigan_inventory.itemtype",
    "pk": 3,
    "fields": {
        "name": "Armure",
        "description": null,
        "order": 30,
        "available": true,
        "slug": "armor"
    }
},
{
    "model": "morrigan_inventory.genericitem",
    "pk": 1,
    "fields": {
        "name": "Cl\u00e9",
	"slug": "key",
        "description": "",
        "order": 10,
        "available": true,
        "type": 1,
        "price": null,
        "effect": null,
        "equipped_effect": null,
        "technology": null,
        "material": null,
        "visible": true,
        "icon": "fa fa-key",
        "contain_capacity": 0,
        "bag_reduction_factor": 1.0,
        "size": 1,
        "generic_armor": null,
        "generic_weapon": null,
        "generic_charger": null
    }
},
{
    "model": "morrigan_inventory.genericitem",
    "pk": 2,
    "fields": {
        "name": "Chevali\u00e8re en bronze",
	"slug": "signet-ring",
        "description": "Une jolie chevali\u00e8re en bronze.",
        "order": 20,
        "available": true,
        "type": 1,
        "price": null,
        "effect": null,
        "equipped_effect": null,
        "technology": null,
        "material": 2,
        "visible": true,
        "icon": "i-morrigan-diamond-ring",
        "contain_capacity": 0,
        "bag_reduction_factor": 1.0,
        "size": 1,
        "generic_armor": null,
        "generic_weapon": null,
        "generic_charger": null
    }
},
{
    "model": "morrigan_inventory.genericitem",
    "pk": 3,
    "fields": {
        "name": "Sacoche en peau de bete",
	"slug": "bag-in-animal-skin",
        "description": "Capable de contenir une quantit\u00e9 impressionnante de nourriture.",
        "order": 30,
        "available": true,
        "type": 1,
        "price": null,
        "effect": null,
        "equipped_effect": null,
        "technology": null,
        "material": 2,
        "visible": true,
        "icon": "fa fa-suitcase",
        "contain_capacity": 20,
        "bag_reduction_factor": 0.2,
        "size": 1,
        "generic_armor": null,
        "generic_weapon": null,
        "generic_charger": null
    }
},
{
    "model": "morrigan_inventory.genericitem",
    "pk": 4,
    "fields": {
        "name": "Sabre",
	"slug": "saber",
        "description": "Finenement ouvrag\u00e9, ce sabre est autant un sabre de parade que de combat.",
        "order": 40,
        "available": true,
        "type": 2,
        "price": null,
        "effect": null,
        "equipped_effect": null,
        "technology": null,
        "material": 4,
        "visible": true,
        "icon": "i-morrigan-sword",
        "contain_capacity": 0,
        "bag_reduction_factor": 1.0,
        "size": 3,
        "generic_armor": null,
        "generic_weapon": 3,
        "generic_charger": null
    }
},
{
    "model": "morrigan_inventory.genericitem",
    "pk": 5,
    "fields": {
        "name": "\u00c9p\u00e9e ancestrale",
	"slug": "ancestral-sword",
        "description": "Une belle, une magnifique \u00e9p\u00e9e lourdement forg\u00e9e.",
        "order": 50,
        "available": true,
        "type": 2,
        "price": null,
        "effect": null,
        "equipped_effect": null,
        "technology": null,
        "material": 4,
        "visible": true,
        "icon": "i-morrigan-sword",
        "contain_capacity": 0,
        "bag_reduction_factor": 1.0,
        "size": 4,
        "generic_armor": null,
        "generic_weapon": 2,
        "generic_charger": null
    }
},
{
    "model": "morrigan_inventory.genericitem",
    "pk": 6,
    "fields": {
        "name": "Arc court",
	"slug": "short-bow",
        "description": "Un bon petit arc en bois.",
        "order": 60,
        "available": true,
        "type": 2,
        "price": null,
        "effect": null,
        "equipped_effect": null,
        "technology": null,
        "material": 5,
        "visible": true,
        "icon": "i-morrigan-bow",
        "contain_capacity": 0,
        "bag_reduction_factor": 1.0,
        "size": 4,
        "generic_armor": null,
        "generic_weapon": 1,
        "generic_charger": null
    }
},
{
    "model": "morrigan_inventory.genericitem",
    "pk": 7,
    "fields": {
        "name": "Armure de cuir",
	"slug": "leather-armor",
        "description": "L'armure de cuir est une compromis entre solidit\u00e9 et l\u00e9g\u00e8ret\u00e9.",
        "order": 70,
        "available": true,
        "type": 3,
        "price": null,
        "effect": null,
        "equipped_effect": null,
        "technology": null,
        "material": 6,
        "visible": true,
        "icon": "i-morrigan-armor",
        "contain_capacity": 0,
        "bag_reduction_factor": 1.0,
        "size": 5,
        "generic_armor": 1,
        "generic_weapon": null,
        "generic_charger": null
    }
},
{
    "model": "morrigan_inventory.genericitem",
    "pk": 8,
    "fields": {
        "name": "Coffre",
	"slug": "chest",
        "description": "",
        "order": 80,
        "available": true,
        "type": 1,
        "price": null,
        "effect": null,
        "equipped_effect": null,
        "technology": null,
        "material": 5,
        "visible": true,
        "icon": "i-morrigan-chest",
        "contain_capacity": 30,
        "bag_reduction_factor": 1.0,
        "size": 6,
        "generic_armor": null,
        "generic_weapon": null,
        "generic_charger": null
    }
},
{
    "model": "morrigan_inventory.item",
    "pk": 12,
    "fields": {
        "name": "Sacoche en peau de bete",
        "description": "Capable de contenir une quantit\u00e9 impressionnante de nourriture.",
        "order": 30,
        "available": true,
        "type": 1,
        "price": null,
        "effect": null,
        "equipped_effect": null,
        "technology": null,
        "material": 2,
        "visible": true,
        "icon": "fa fa-suitcase",
        "contain_capacity": 20,
        "bag_reduction_factor": 0.2,
        "size": 1,
        "generic_item": 3,
        "halted": null,
        "natural": false,
        "location": 1,
        "inside": null
    }
},
{
    "model": "morrigan_inventory.item",
    "pk": 13,
    "fields": {
        "name": "Coffre",
        "description": "",
        "order": 80,
        "available": true,
        "type": 1,
        "price": null,
        "effect": null,
        "equipped_effect": null,
        "technology": null,
        "material": 5,
        "visible": true,
        "icon": "i-morrigan-chest",
        "contain_capacity": 30,
        "bag_reduction_factor": 1.0,
        "size": 6,
        "generic_item": 8,
        "halted": null,
        "natural": false,
        "location": 1,
        "inside": null
    }
},
{
    "model": "morrigan_inventory.genericweapon",
    "pk": 1,
    "fields": {
        "name": "Arc court",
        "damage_type": 2,
        "effect": null,
        "weapon_range": null,
        "min_damage": 6,
        "max_damage": 12,
        "two_hands": true,
        "ability_1": 2,
        "ability_2": null,
        "skill_1": 15,
        "skill_2": null,
        "attack_bonus": 4,
        "defense_bonus": 0,
        "ammo_types": [
            1
        ]
    }
},
{
    "model": "morrigan_inventory.genericweapon",
    "pk": 2,
    "fields": {
        "name": "\u00c9p\u00e9e ancestrale",
        "damage_type": 3,
        "effect": null,
        "weapon_range": null,
        "min_damage": 6,
        "max_damage": 12,
        "two_hands": true,
        "ability_1": 1,
        "ability_2": null,
        "skill_1": 12,
        "skill_2": null,
        "attack_bonus": 6,
        "defense_bonus": 0,
        "ammo_types": []
    }
},
{
    "model": "morrigan_inventory.genericweapon",
    "pk": 3,
    "fields": {
        "name": "Sabre",
        "damage_type": 3,
        "effect": null,
        "weapon_range": null,
        "min_damage": 2,
        "max_damage": 8,
        "two_hands": false,
        "ability_1": 1,
        "ability_2": null,
        "skill_1": 11,
        "skill_2": null,
        "attack_bonus": 0,
        "defense_bonus": 0,
        "ammo_types": []
    }
},
{
    "model": "morrigan_inventory.genericarmor",
    "pk": 1,
    "fields": {
        "name": "Armure de cuir",
        "defense_bonus": 10
    }
},
{
    "model": "morrigan_inventory.genericarmorarea",
    "pk": 1,
    "fields": {
        "area": 2,
        "place_taken": 1,
        "generic_armor": 1
    }
},
{
    "model": "morrigan_inventory.genericarmordamage",
    "pk": 1,
    "fields": {
        "damage_type": 1,
        "min_absorption": 4,
        "max_absorption": 8,
        "generic_armor": 1
    }
},
{
    "model": "morrigan_inventory.genericarmordamage",
    "pk": 2,
    "fields": {
        "damage_type": 3,
        "min_absorption": 4,
        "max_absorption": 8,
        "generic_armor": 1
    }
},
{
    "model": "morrigan_inventory.genericarmordamage",
    "pk": 3,
    "fields": {
        "damage_type": 3,
        "min_absorption": 1,
        "max_absorption": 1,
        "generic_armor": 1
    }
},
{
    "model": "morrigan_inventory.ammotype",
    "pk": 1,
    "fields": {
        "name": "Fl\u00e8ches",
        "description": "",
        "order": 10,
        "available": true
    }
}
]
