[
{
    "model": "morrigan_common.formula",
    "fields": {
        "name": "Remise journali\u00e8re",
        "formula": "",
        "ap_formula": "max ( int( [max_ap] / 5 ), 1 )   # 1/5 of maximum action point - minimum 1",
        "fp_formula": "",
        "mp_formula": "max ( int( [max_mp] / 5 ), 1 )   # 1/5 of maximum magical point - minimum 1",
        "hp_formula": "max ( int( [max_hp] / 20 ), 1 )   # 1/20 of maximum health point - minimum 1",
        "bp_formula": "max ( int( [max_bp] / 5 ), 1 )   # 1/5 of maximum battle point - minimum 1",
        "xp_formula": ""
    }
},
{
    "model": "morrigan_common.action",
    "fields": {
        "name": "Remise journali\u00e8re",
        "description": "",
        "order": 10,
        "available": true,
        "slug": "daily-reset",
        "formula": [
            "Remise journali\u00e8re"
        ],
        "opponent_formula": null,
        "help_text": "",
        "fighting_action": false,
        "need_conscious": true,
        "need_fight": false,
        "need_no_fight": false,
        "icon": null,
        "target_self": false,
        "target_other": false,
        "target_trusting": null,
        "target_multiple": false,
        "target_own_item": false,
        "target_location_item": false,
        "target_other_item": false,
        "target_can_be_carried": false,
        "target_natural_item": "N",
        "target_equipped_item": "N",
        "target_equippable_item": "N",
        "view_slug": null
    }
},
{
    "model": "morrigan_common.task",
    "fields": {
        "action": [
            "daily-reset"
        ],
        "order": 1000
    }
},
{
    "model": "morrigan_common.locationevent",
    "fields": {
        "available": true,
        "order": 1000,
        "first_delay": 0,
        "delay": 23,
        "maximum": null,
        "location_trigger": null,
        "tasks": [
            [
                "daily-reset",
                1000
            ]
        ],
        "action_triggers": [],
        "state_triggers": [],
        "locations": []
    }
}
]

