<?xml version="1.0" encoding="UTF-8" standalone="no"?>
<svg
   xmlns:dc="http://purl.org/dc/elements/1.1/"
   xmlns:cc="http://creativecommons.org/ns#"
   xmlns:rdf="http://www.w3.org/1999/02/22-rdf-syntax-ns#"
   xmlns:svg="http://www.w3.org/2000/svg"
   xmlns="http://www.w3.org/2000/svg"
   xmlns:sodipodi="http://sodipodi.sourceforge.net/DTD/sodipodi-0.dtd"
   xmlns:inkscape="http://www.inkscape.org/namespaces/inkscape"
   viewBox="0 0 512 512"
   id="svg2"
   version="1.1"
   inkscape:version="0.92.1 r15371"
   width="100%"
   height="100%"
   sodipodi:docname="mountains.svg">
  <metadata
     id="metadata10">
    <rdf:RDF>
      <cc:Work
         rdf:about="">
        <dc:format>image/svg+xml</dc:format>
        <dc:type
           rdf:resource="http://purl.org/dc/dcmitype/StillImage" />
      </cc:Work>
    </rdf:RDF>
  </metadata>
  <defs
     id="defs8" />
  <sodipodi:namedview
     pagecolor="#ffffff"
     bordercolor="#666666"
     borderopacity="1"
     objecttolerance="10"
     gridtolerance="10"
     guidetolerance="10"
     inkscape:pageopacity="0"
     inkscape:pageshadow="2"
     inkscape:window-width="1920"
     inkscape:window-height="1053"
     id="namedview6"
     showgrid="false"
     inkscape:zoom="1.3037281"
     inkscape:cx="105.46949"
     inkscape:cy="197.32248"
     inkscape:window-x="0"
     inkscape:window-y="27"
     inkscape:window-maximized="1"
     inkscape:current-layer="svg2" />
  <path
     d="m 392.81715,6.52578 -7.19034,8.61425 -83.02492,99.69459 C 290.24472,102.99179 277.89212,91.4402 265.5414,80.16137 l -7.05594,-6.48772 -6.58555,7.10045 c -19.79426,21.36852 -39.71379,43.37803 -59.6059,65.85033 l -82.18492,-96.16239 -7.39194,-8.65029 -7.391948,8.65029 -76.540165,89.17007 c 0.01563,-0.1214 0.05142,-0.23908 0.0672,-0.36042 -5.013727,6.26887 -10.1044067,12.05417 -15.1870743,17.33662 4.5690181,5.21886 9.0799413,10.82035 13.4734883,16.75994 l 16.833462,-19.60733 40.050868,-23.2837 -18.479846,62.35418 44.956435,-59.07427 29.36615,37.73689 -1.54559,-56.26293 28.42537,21.66177 21.73902,25.41022 c -42.08143,48.06229 -83.83549,98.14754 -123.64698,149.03729 4.160549,5.78829 8.202601,11.86479 12.0623,18.20165 20.236032,-25.95957 40.98519,-51.7264 62.05869,-77.13175 l 60.3787,-38.99839 -31.51654,88.5213 66.15785,-84.62867 6.71995,37.12416 20.99982,-42.42246 51.44118,80.15935 -22.81421,-105.82188 57.15313,70.2836 -8.26553,-62.93085 65.75465,46.92782 c 19.80628,22.30776 39.59638,45.73628 59.40431,70.42778 -1.60414,-10.67624 -2.34726,-22.63675 -2.15038,-35.39411 -44.9073,-54.34128 -89.80758,-102.48811 -134.70129,-146.40615 l 11.8271,-14.2009 35.68291,-26.05899 -4.13277,40.80053 23.18381,-36.9079 11.55831,19.24689 10.71831,-9.76762 29.23176,30.92479 -7.62714,-39.89946 20.96623,5.83894 44.84181,47.52249 c 7.07667,-6.9367 2.93967,-1.29559 14.42809,-15.87684 C 471.79548,96.54769 436.53919,54.69984 400.30989,14.7796 Z"
     id="path4"
     inkscape:connector-curvature="0"
     sodipodi:nodetypes="ccccccccccccccccccccccccccccccccccccccccccccccccccc" />
</svg>
