<?xml version="1.0" encoding="UTF-8" standalone="no"?>
<svg
   xmlns:dc="http://purl.org/dc/elements/1.1/"
   xmlns:cc="http://creativecommons.org/ns#"
   xmlns:rdf="http://www.w3.org/1999/02/22-rdf-syntax-ns#"
   xmlns:svg="http://www.w3.org/2000/svg"
   xmlns="http://www.w3.org/2000/svg"
   xmlns:sodipodi="http://sodipodi.sourceforge.net/DTD/sodipodi-0.dtd"
   xmlns:inkscape="http://www.inkscape.org/namespaces/inkscape"
   viewBox="0 0 512 512"
   id="svg2"
   version="1.1"
   inkscape:version="0.48.5 r10040"
   width="100%"
   height="100%"
   sodipodi:docname="zeus-sword.svg">
  <metadata
     id="metadata10">
    <rdf:RDF>
      <cc:Work
         rdf:about="">
        <dc:format>image/svg+xml</dc:format>
        <dc:type
           rdf:resource="http://purl.org/dc/dcmitype/StillImage" />
        <dc:title></dc:title>
      </cc:Work>
    </rdf:RDF>
  </metadata>
  <defs
     id="defs8" />
  <sodipodi:namedview
     pagecolor="#ffffff"
     bordercolor="#666666"
     borderopacity="1"
     objecttolerance="10"
     gridtolerance="10"
     guidetolerance="10"
     inkscape:pageopacity="0"
     inkscape:pageshadow="2"
     inkscape:window-width="640"
     inkscape:window-height="480"
     id="namedview6"
     showgrid="false"
     inkscape:zoom="0.32593203"
     inkscape:cx="110.16136"
     inkscape:cy="354.52108"
     inkscape:window-x="2662"
     inkscape:window-y="169"
     inkscape:window-maximized="0"
     inkscape:current-layer="svg2" />
  <path
     d="M 486.96791,12.992342 399.90538,47.728963 C 295.77733,141.47125 220.08488,227.54947 127.53669,320.09766 c 2.932,3.52999 5.91842,7.00182 8.97142,10.42982 l 9.65642,9.65643 C 240.33716,249.82405 324.38332,161.9466 419.61602,66.688299 l 13.23615,13.236155 C 336.04642,172.34861 251.33871,261.43792 159.37863,353.398 l 9.8332,9.83321 c 3.502,3.116 7.05989,6.17328 10.67289,9.17029 92.09793,-90.43963 179.81416,-179.81416 272.3687,-272.3687 z M 78.635836,283.57117 50.815604,311.3914 188.1711,448.7469 215.96927,420.9046 C 159.68627,386.2306 112.96488,339.29621 78.635872,283.57121 z m 18.73833,100.80691 -80.985824,80.98583 17.766058,17.76605 80.98582,-80.98582 z"
     id="path4"
     inkscape:connector-curvature="0"
     sodipodi:nodetypes="cccccccccccccccccccccc" />
</svg>
